{
  "total": 19,
  "current_Page": 1,
  "last_page": 2,
  "items": [
    {
      "id": 0,
      "title": "Ladies Chrome T-Shirt",
      "price": 13.3,
      "image": "10-23180B.jpg",
      "description": "The best of three fabrics combined into one seductively-soft tee.&amp;nbsp;&lt;div&gt;&lt;br&gt;&lt;/div&gt;&lt;div&gt;Features:&lt;/div&gt;&lt;div&gt;&lt;ul&gt;&lt;li&gt;50% polyester, 25% combed and ring-spun cotton, 25% rayon.&lt;/li&gt;&lt;li&gt;Side-seamed.&lt;/li&gt;&lt;li&gt;Semi-relaxed fit.&amp;nbsp;&lt;/li&gt;&lt;li&gt;Available in heather blue with the white Google Chrome logo screenprinted at center chest.&amp;nbsp;&lt;/li&gt;&lt;/ul&gt;&lt;/div&gt;"
    },
    {
      "id": 1,
      "title": "Ladies Google New York T-Shirt",
      "price": 18.35,
      "image": "10-23226B.jpg",
      "description": "Are you feeling lucky? Inspired by city lights in The Big Apple, this tee features the 'I'm Feeling Lucky New York' phrase at back.&lt;div&gt;&lt;br&gt;&lt;/div&gt;&lt;div&gt;Features:&lt;/div&gt;&lt;div&gt;&lt;ul&gt;&lt;li&gt;100% cotton.&lt;/li&gt;&lt;li&gt;American Apparel shirt designed with a ladies fit in mind.&lt;/li&gt;&lt;li&gt;Available in Black with the Google logo and 'I'm Feeling Lucky' New York printed on back yoke in White.&lt;/li&gt;&lt;li&gt;&lt;b&gt;Sizing runs smaller than normal. Please reference size chart before ordering.&lt;/b&gt;&lt;/li&gt;&lt;/ul&gt;&lt;/div&gt;"
    },
    {
      "id": 2,
      "title": "Ladies Gmail T-Shirt",
      "price": 16.4,
      "image": "10-23179B.jpg",
      "description": "Show your inbox some love. The new Gmail tee has arrived, complete with a subtle Mvelope design that showcases all of the Gmail icons you use on the daily.&lt;div&gt;&lt;br&gt;&lt;/div&gt;&lt;div&gt;Features:&lt;/div&gt;&lt;div&gt;&lt;ul&gt;&lt;li&gt;50% polyester, 25% cotton.&lt;/li&gt;&lt;li&gt;Bella+Canvas.&lt;/li&gt;&lt;li&gt;Available in vintage red with the new Gmail print screenprinted across center chest.&lt;/li&gt;&lt;/ul&gt;&lt;/div&gt;"
    },
    {
      "id": 3,
      "title": "Ladies G Logo White T-Shirt",
      "price": 13.3,
      "image": "10-23178B.jpg",
      "description": "There's a new G in town and it's here to stay. Get your hands on this comfy white tee with the new Google icon.&amp;nbsp;\n\n&lt;div&gt;&lt;br&gt;&lt;/div&gt;&lt;div&gt;Features:&amp;nbsp;&lt;/div&gt;&lt;div&gt;&lt;ul&gt;&lt;li&gt;100% combed and ring-spun cotton.&lt;/li&gt;&lt;li&gt;Side seamed, relaxed fit.&lt;/li&gt;&lt;li&gt;Bella+Canvas.&lt;/li&gt;&lt;li&gt;Available in white with the Google 'G' icon screenprinted at front.&lt;/li&gt;&lt;/ul&gt;&lt;/div&gt;"
    },
    {
      "id": 4,
      "title": "Ladies Android Pride T-Shirt",
      "price": 19.1,
      "image": "10-23177B.jpg",
      "description": "Stand out proud in this Ladies' Android Pride T-shirt.&amp;nbsp;&lt;div&gt;&lt;br&gt;&lt;/div&gt;&lt;div&gt;Features:&lt;/div&gt;&lt;div&gt;&lt;ul&gt;&lt;li&gt;100% cotton.&lt;/li&gt;&lt;li&gt;Available in black and features two Androids holding hands and waving a rainbow flag printed across the front. Google logo screen printed in white on the sleeve.&amp;nbsp;&lt;/li&gt;&lt;li&gt;&lt;b&gt;Sizing runs smaller than normal. Please reference size chart before ordering.&lt;/b&gt;&lt;/li&gt;&lt;/ul&gt;&lt;/div&gt;"
    },
    {
      "id": 5,
      "title": "Ladies Ringspun Crew Neck",
      "price": 19.7,
      "image": "10-23172B.jpg",
      "description": "Cheery colors make the world a happier place. This bright pink tee is ultra soft and features a comfortable, ladies fit.&lt;div&gt;&lt;br&gt;&lt;/div&gt;&lt;div&gt;Features:&lt;/div&gt;&lt;div&gt;&lt;ul&gt;&lt;li&gt;100% cotton.&lt;/li&gt;&lt;li&gt;Tagless label for added comfort.&lt;/li&gt;&lt;li&gt;&lt;b&gt;Relaxed fit.&lt;/b&gt;&lt;/li&gt;&lt;li&gt;Available in hot pink with the white Google logo screenprinted at center chest.&lt;/li&gt;&lt;/ul&gt;&lt;/div&gt;"
    },
    {
      "id": 6,
      "title": "Ladies Tri-Blend V-Neck T-Shirt",
      "price": 35.1,
      "image": "10-23227B.jpg",
      "description": "A tagless label, ultra soft triblend fabric and v-neck cut are three ingredients for a favorite tee.&amp;nbsp;&lt;div&gt;&lt;br&gt;&lt;/div&gt;&lt;div&gt;Features:&lt;/div&gt;&lt;div&gt;&lt;ul&gt;&lt;li&gt;25% cotton, 50% polyester, 25% rayon.&lt;/li&gt;&lt;li&gt;Made in California.&lt;/li&gt;&lt;li&gt;Available in green with the white Google logo screenprinted at center chest.&lt;/li&gt;&lt;/ul&gt;&lt;/div&gt;"
    },
    {
      "id": 7,
      "title": "Bella Ladies Favorite Tee",
      "price": 10.5,
      "image": "10-23228B.jpg",
      "description": "This ladies tee features a longer body length perfect for layering up.&amp;nbsp;&lt;div&gt;&lt;br&gt;&lt;/div&gt;&lt;div&gt;Features:&lt;/div&gt;&lt;div&gt;&lt;ul&gt;&lt;li&gt;100% combed, ringspun cotton.&lt;/li&gt;&lt;li&gt;Extra soft, lightweight fabric.&lt;/li&gt;&lt;li&gt;&lt;b&gt;Slim fit. Runs small.&amp;nbsp;&lt;/b&gt;&lt;/li&gt;&lt;li&gt;Available in aqua with the white Google logo screenprinted at center chest.&lt;/li&gt;&lt;/ul&gt;&lt;/div&gt;"
    },
    {
      "id": 8,
      "title": "Ladies Bamboo T-Shirt",
      "price": 20.65,
      "image": "10-23176B.jpg",
      "description": "A bamboo tee that's softer than your favorite cotton t-shirt. Your skin will thank you during those long nights of programming.&amp;nbsp;&lt;div&gt;&lt;br&gt;&lt;/div&gt;&lt;div&gt;Features:&lt;/div&gt;&lt;div&gt;&lt;ul&gt;&lt;li&gt;70% viscose from organic bamboo, 30% organic cotton.&lt;/li&gt;&lt;li&gt;Available in vintage pink with the white Google logo screen printed at center chest.&lt;/li&gt;&lt;/ul&gt;&lt;/div&gt;"
    },
    {
      "id": 9,
      "title": "Ladies L/S Colorblock Raglan",
      "price": 36.95,
      "image": "10-23173B.jpg",
      "description": "Add a dose of mango to your t-shirt lineup. This scoop neck raglan features a bright pop of color and a scoop neck with v-notch.&lt;div&gt;&lt;br&gt;&lt;/div&gt;&lt;div&gt;Features:&lt;/div&gt;&lt;div&gt;&lt;ul&gt;&lt;li&gt;60% cotton, 40% polyester.&lt;/li&gt;&lt;li&gt;Scoop hem.&lt;/li&gt;&lt;li&gt;Self-fabric cuff bands.&lt;/li&gt;&lt;li&gt;Available in heather/mango with the white Google logo screenprinted at center chest.&lt;/li&gt;&lt;/ul&gt;&lt;/div&gt;"
    }
  ]
}